Testset seed 1 to 100
________________________________________________________________
Seed ... 1 
FizzBazz!
S: 10
N: 10
W: 5
H: 16
H/S2: 0.160000
P: 1.035800
los: 0
area: 1
r,c: 4,5
step: 400
solve1end: 10/ 10
solve2end: 10/ 10
sc1: 412.000000
sc2: 296.000000
len: 110/ 400
sc4: 1201.000000
time: 9020 ms
Score = 1201.0
________________________________________________________________
Seed ... 2 
FizzBazz!
S: 20
N: 46
W: 30
H: 21
H/S2: 0.052500
P: 0.841406
los: 0
area: 1
r,c: 7,10
step: 3680
solve1end: 46/ 46
solve2end: 46/ 46
sc1: 36787.000000
sc2: 26343.000000
len: 562/ 3680
sc4: 85008.319300
time: 9020 ms
Score = 85008.31929951599
________________________________________________________________
Seed ... 3 
FizzBazz!
S: 40
N: 400
W: 118
H: 212
H/S2: 0.132500
P: 1.185729
los: 0
area: 1
r,c: 21,8
step: 64000
solve1end: 55/ 400
solve2end: 41/ 400
sc1: 74378.924647
sc2: 26213.843730
len: 1195/ 64000
sc4: 1905804.497209Score = 1905804.4972093522

time: 9030 ms
________________________________________________________________
Seed ... 4 
FizzBazz!
S: 29
N: 193
W: 48
H: 88
H/S2: 0.104637
P: 1.733925
los: 0
area: 1
r,c: 0,27
step: 22388
solve1end: 33/ 193
solve2end: 58/ 193
sc1: 5284.380941
sc2: 97088.711821
len: 716/ 22388
sc4: 128861.561821
time: 9030 ms
Score = 128861.561820613
________________________________________________________________
Seed ... 5 
FizzBazz!
S: 12
N: 14
W: 7
H: 13
H/S2: 0.090278
P: 1.275133
los: 0
area: 1
r,c: 4,1
step: 672
solve1end: 14/ 14
solve2end: 14/ 14
sc1: 209.000000
sc2: 377.000000
len: 131/ 672
sc4: 2010.000000
time: 9020 ms
Score = 2010.0
________________________________________________________________
Seed ... 6 
FizzBazz!
S: 27
N: 144
W: 5
H: 29
H/S2: 0.039781
P: 0.514796
los: 0
area: 1
r,c: 23,6
step: 15552
solve1end: 14/ 144
solve2end: 22/ 144
sc1: 26608.685134
sc2: 45377.207617
len: 604/ 15552
sc4: 48881.717310
time: 9030 ms
Score = 48881.71730985547
________________________________________________________________
Seed ... 7 
FizzBazz!
S: 13
N: 15
W: 6
H: 21
H/S2: 0.124260
P: 0.107822
los: 0
area: 1
r,c: 1,11
step: 780
solve1end: 15/ 15
solve2end: 15/ 15
sc1: 1515.000000
sc2: 821.000000
len: 174/ 780
sc4: 4897.732743
time: Score = 4897.732742954335
9030 ms
________________________________________________________________
Seed ... 8 
FizzBazz!
S: 31
N: 205
W: 3
H: 108
H/S2: 0.112383
P: 1.131926
los: 0
area: 1
r,c: 19,7
step: 25420
solve1end: 18/ 205
solve2end: 21/ 205
sc1: 21480.597897
sc2: 20884.705331
len: 500/ 25420
sc4: 5856.039426
time: 9031 ms
Score = 5856.039426167751
________________________________________________________________
Seed ... 9 
FizzBazz!
S: 27
N: 156
W: 43
H: 27
H/S2: 0.037037
P: 1.469377
los: 0
area: 1
r,c: 14,5
step: 16848
solve1end: 56/ 156
solve2end: 66/ 156
sc1: 157717.037106
sc2: 261163.027248
len: 680/ 16848
sc4: 128130.753846
time: 9020 ms
Score = 128130.75384643911
________________________________________________________________
Seed ... 10 
FizzBazz!
S: 35
N: 121
W: 71
H: 180
H/S2: 0.146939
P: 1.108684
los: 0
area: 1
r,c: 1,22
step: 16940
solve1end: 41/ 121
solve2end: 44/ 121
sc1: 36346.155906
sc2: 49905.266244
len: 461/ 16940
sc4: 93029.635710
time: 9040 ms
Score = 93029.63570982976
________________________________________________________________
Seed ... 11 
FizzBazz!
S: 35
N: 128
W: 24
H: 171
H/S2: 0.139592
P: 0.143769
los: 0
area: 1
r,c: 29,1
step: 17920
solve1end: 26/ 128
solve2end: 33/ 128
sc1: 124568.508233
sc2: 176587.150965
len: 920/ 17920
sc4: 563082.533776
time: 9030 ms
Score = 563082.5337760295
________________________________________________________________
Seed ... 12 
FizzBazz!
S: 38
N: 175
W: 87
H: 213
H/S2: 0.147507
P: 0.432272
los: 0
area: 1
r,c: 15,32
step: 26600
solve1end: 96/ 175
solve2end: 108/ 175
sc1: 1301964.655135
sc2: 1620871.799319
len: 873/ 26600
sc4: 1182648.729348
time: 9030 ms
Score = 1182648.729347766
________________________________________________________________
Seed ... 13 
FizzBazz!
S: 16
N: 56
W: 4
H: 1
H/S2: 0.003906
P: 0.523187
los: 0
area: 1
r,c: 11,11
step: 3584
solve1end: 11/ 56
solve2end: 24/ 56
sc1: 3954.635769
sc2: 35140.512779
len: 255/ 3584
sc4: 7046.600546
time: 9020 ms
Score = 7046.600545572703
________________________________________________________________
Seed ... 14 
FizzBazz!
S: 12
N: 16
W: 10
H: 14
H/S2: 0.097222
P: 1.789356
los: 0
area: 1
r,c: 1,0
step: 768
solve1end: 16/ 16
solve2end: 16/ 16
sc1: 774.000000
sc2: 334.000000
len: 110/ 768
sc4: 2654.000000
time: 9020 ms
Score = 2654.0
________________________________________________________________
Seed ... 15 
FizzBazz!
S: 20
N: 65
W: 11
H: 13
H/S2: 0.032500
P: 1.506585
los: 0
area: 1
r,c: 12,19
step: 5200
solve1end: 29/ 65
solve2end: 36/ 65
sc1: 19473.228405
sc2: 28496.464550
len: 394/ 5200
sc4: 13284.862273
time: 9020 ms
Score = 13284.862273034152
________________________________________________________________
Seed ... 16 
FizzBazz!
S: 23
N: 68
W: 31
H: 38
H/S2: 0.071834
P: 1.288506
los: 0
area: 1
r,c: 2,3
step: 6256
solve1end: 68/ 68
solve2end: 68/ 68
sc1: 138543.000000
sc2: 136808.000000
len: 530/ 6256
sc4: 89540.439295
time: 9020 ms
Score = 89540.43929545523
________________________________________________________________
Seed ... 17 
FizzBazz!
S: 36
N: 82
W: 23
H: 76
H/S2: 0.058642
P: 1.312383
los: 0
area: 1
r,c: 3,21
step: 11808
solve1end: 82/ 82
solve2end: 82/ 82
sc1: 336327.000000
sc2: 343244.000000
len: 1172/ 11808
sc4: 239299.637303
time: 9030 ms
Score = 239299.63730343644
________________________________________________________________
Seed ... 18 
FizzBazz!
S: 35
N: 185
W: 38
H: 135
H/S2: 0.110204
P: 0.510166
los: 0
area: 1
r,c: 27,15
step: 25900
solve1end: 29/ 185
solve2end: 29/ 185
sc1: 76663.360008
sc2: 69067.854264
len: 975/ 25900
sc4: 541597.774325
time: 9030 ms
Score = 541597.7743247577
________________________________________________________________
Seed ... 19 
FizzBazz!
S: 23
N: 30
W: 9
H: 77
H/S2: 0.145558
P: 0.549236
los: 0
area: 1
r,c: 11,6
step: 2760
solve1end: 30/ 30
solve2end: 30/ 30
sc1: 11207.000000
sc2: 8653.000000
len: 524/ 2760
sc4: 36494.309961
time: 9030 ms
Score = 36494.30996123197
________________________________________________________________
Seed ... 20 
FizzBazz!
S: 10
N: 15
W: 7
H: 9
H/S2: 0.090000
P: 0.595073
los: 0
area: 1
r,c: 6,5
step: 600
solve1end: 12/ 15
solve2end: 15/ 15
sc1: 798.594461
sc2: 1024.000000
len: 107/ 600
sc4: 2154.171490
time: 9020 ms
Score = 2154.1714895941827
________________________________________________________________
Seed ... 21 
FizzBazz!
S: 35
N: 220
W: 34
H: 163
H/S2: 0.133061
P: 0.096089
los: 0
area: 1
r,c: 16,21
step: 30800
solve1end: 37/ 220
solve2end: 42/ 220
sc1: 325246.410350
sc2: 401105.397569
len: 890/ 30800
sc4: 1193122.078808
time: 9040 ms
Score = 1193122.078807938
________________________________________________________________
Seed ... 22 
FizzBazz!
S: 26
N: 62
W: 13
H: 3
H/S2: 0.004438
P: 0.977801
los: 0
area: 1
r,c: 7,21
step: 6448
solve1end: 62/ 62
solve2end: 62/ 62
sc1: 152258.000000
sc2: 123155.000000
len: 716/ 6448
sc4: 99334.846926
time: 9030 ms
Score = 99334.8469257642
________________________________________________________________
Seed ... 23 
FizzBazz!
S: 22
N: 33
W: 8
H: 40
H/S2: 0.082645
P: 0.836355
los: 0
area: 1
r,c: 6,11
step: 2904
solve1end: 33/ 33
solve2end: 33/ 33
sc1: 14418.000000
sc2: 13377.000000
len: 535/ 2904
sc4: 42845.286028
time: 9020 ms
Score = 42845.286027617076
________________________________________________________________
Seed ... 24 
FizzBazz!
S: 11
N: 30
W: 1
H: 8
H/S2: 0.066116
P: 0.034247
los: 0
area: 1
r,c: 3,5
step: 1320
solve1end: 5/ 30
solve2end: 17/ 30
sc1: 1169.960917
sc2: 7789.989575
len: 111/ 1320
sc4: 4764.487142
time: 9020 ms
Score = 4764.48714211847
________________________________________________________________
Seed ... 25 
FizzBazz!
S: 31
N: 90
W: 42
H: 173
H/S2: 0.180021
P: 0.642358
los: 0
area: 2
r,c: 10,15
step: 11160
solve1end: 22/ 90
solve2end: 61/ 90
sc1: 24617.619827
sc2: 233028.919025
len: 664/ 11160
sc4: 282832.314626
time: 9030 ms
Score = 282832.31462580676
________________________________________________________________
Seed ... 26 
FizzBazz!
S: 15
N: 29
W: 7
H: 7
H/S2: 0.031111
P: 0.522249
los: 0
area: 1
r,c: 8,4
step: 1740
solve1end: 19/ 29
solve2end: 19/ 29
sc1: 3720.573239
sc2: 2460.870533
len: 254/ 1740
sc4: 15348.660282
time: 9020 ms
Score = 15348.660281512362
________________________________________________________________
Seed ... 27 
FizzBazz!
S: 20
N: 71
W: 28
H: 2
H/S2: 0.005000
P: 0.434409
los: 0
area: 1
r,c: 13,18
step: 5680
solve1end: 29/ 71
solve2end: 55/ 71
sc1: 48550.624279
sc2: 128059.247213
len: 478/ 5680
sc4: 168304.655850
time: 9020 ms
Score = 168304.6558504614
________________________________________________________________
Seed ... 28 
FizzBazz!
S: 28
N: 81
W: 36
H: 40
H/S2: 0.051020
P: 0.683069
los: 0
area: 1
r,c: 5,7
step: 9072
solve1end: 54/ 81
solve2end: 81/ 81
sc1: 115687.468158
sc2: 236994.000000
len: 517/ 9072
sc4: 150912.383126
time: 9030 ms
Score = 150912.38312555698
________________________________________________________________
Seed ... 29 
FizzBazz!
S: 39
N: 51
W: 131
H: 32
H/S2: 0.021039
P: 0.429371
los: 0
area: 1
r,c: 8,36
step: 7956
solve1end: 4/ 51
solve2end: 4/ 51
sc1: 217.555865
sc2: 217.555865
len: 932/ 7956
sc4: 192219.000000
time: 9030 ms
Score = 192219.0
________________________________________________________________
Seed ... 30 
FizzBazz!
S: 38
N: 247
W: 88
H: 223
H/S2: 0.154432
P: 0.412680
los: 0
area: 1
r,c: 21,31
step: 37544
solve1end: 20/ 247
solve2end: 118/ 247
sc1: 25997.203196
sc2: 3492128.041451
len: 505/ 37544
sc4: 624788.497356
time: 9030 ms
Score = 624788.4973557722
________________________________________________________________
Seed ... 31 
FizzBazz!
S: 10
N: 10
W: 0
H: 17
H/S2: 0.170000
P: 1.024958
los: 0
area: 1
r,c: 4,4
step: 400
solve1end: 7/ 10
solve2end: 10/ 10
sc1: 281.681316
sc2: 329.000000
len: 82/ 400
sc4: 562.000000
time: Score = 562.0
9010 ms
________________________________________________________________
Seed ... 32 
FizzBazz!
S: 22
N: 71
W: 5
H: 46
H/S2: 0.095041
P: 0.083599
los: 0
area: 1
r,c: 3,4
step: 6248
solve1end: 24/ 71
solve2end: 26/ 71
sc1: 66166.951999
sc2: 55236.712684
len: 361/ 6248
sc4: 62368.176567
time: 9020 ms
Score = 62368.176567485265
________________________________________________________________
Seed ... 33 
FizzBazz!
S: 20
N: 20
W: 26
H: 3
H/S2: 0.007500
P: 1.928021
los: 0
area: 1
r,c: 10,14
step: 1600
solve1end: 20/ 20
solve2end: 20/ 20
sc1: 1243.000000
sc2: 2228.000000
len: 225/ 1600
sc4: 7899.000000
time: 9020 ms
Score = 7899.0
________________________________________________________________
Seed ... 34 
FizzBazz!
S: 10
N: 10
W: 2
H: 2
H/S2: 0.020000
P: 0.612482
los: 0
area: 1
r,c: 7,8
step: 400
solve1end: 10/ 10
solve2end: 10/ 10
sc1: 142.000000
sc2: 70.000000
len: 86/ 400
sc4: 598.000000
time: 9030 ms
Score = 598.0
________________________________________________________________
Seed ... 35 
FizzBazz!
S: 19
N: 40
W: 31
H: 30
H/S2: 0.083102
P: 1.846884
los: 0
area: 1
r,c: 11,7
step: 3040
solve1end: 40/ 40
solve2end: 40/ 40
sc1: 11642.000000
sc2: 7361.000000
len: 891/ 3040
sc4: 53277.958965Score = 53277.95896504517

time: 9030 ms
________________________________________________________________
Seed ... 36 
FizzBazz!
S: 39
N: 160
W: 37
H: 90
H/S2: 0.059172
P: 1.004391
los: 0
area: 1
r,c: 34,10
step: 24960
solve1end: 68/ 160
solve2end: 86/ 160
sc1: 556744.958790
sc2: 1149891.218851
len: 1422/ 24960
sc4: 536147.364988
time: 9030 ms
Score = 536147.3649876036
________________________________________________________________
Seed ... 37 
FizzBazz!
S: 14
N: 31
W: 11
H: 19
H/S2: 0.096939
P: 0.994626
los: 0
area: 1
r,c: 7,9
step: 1736
solve1end: 27/ 31
solve2end: 31/ 31
sc1: 8590.633620
sc2: 8196.000000
len: 180/ 1736
sc4: 9525.927806
time: 9010 ms
Score = 9525.927805858875
________________________________________________________________
Seed ... 38 
FizzBazz!
S: 27
N: 29
W: 17
H: 127
H/S2: 0.174211
P: 1.132490
los: 0
area: 1
r,c: 17,11
step: 3132
solve1end: 29/ 29
solve2end: 29/ 29
sc1: 7733.000000
sc2: 9355.000000
len: 631/ 3132
sc4: 44367.000000
time: 9040 ms
Score = 44367.0
________________________________________________________________
Seed ... 39 
FizzBazz!
S: 13
N: 25
W: 0
H: 4
H/S2: 0.023669
P: 0.955467
los: 0
area: 1
r,c: 9,7
step: 1300
solve1end: 25/ 25
solve2end: 25/ 25
sc1: 5871.000000
sc2: 6526.000000
len: 173/ 1300
sc4: 5114.081478
time: Score = 5114.081477984525
9030 ms
________________________________________________________________
Seed ... 40 
FizzBazz!
S: 38
N: 232
W: 114
H: 224
H/S2: 0.155125
P: 1.917441
los: 0
area: 1
r,c: 16,13
step: 35264
solve1end: 70/ 232
solve2end: 129/ 232
sc1: 60835.639107
sc2: 927904.489036
len: 1019/ 35264
sc4: 690512.728190
time: 9030 ms
Score = 690512.7281899299
________________________________________________________________
Seed ... 41 
FizzBazz!
S: 21
N: 103
W: 2
H: 53
H/S2: 0.120181
P: 0.701554
los: 0
area: 1
r,c: 10,9
step: 8652
solve1end: 12/ 103
solve2end: 18/ 103
sc1: 10496.681369
sc2: 24928.003581
len: 286/ 8652
sc4: 8268.051557
time: 9030 ms
Score = 8268.05155665366
________________________________________________________________
Seed ... 42 
FizzBazz!
S: 26
N: 81
W: 56
H: 101
H/S2: 0.149408
P: 1.174789
los: 0
area: 2
r,c: 6,17
step: 8424
solve1end: 10/ 81
solve2end: 36/ 81
sc1: 466.273043
sc2: 19720.154642
len: 548/ 8424
sc4: 252844.581989
time: 9030 ms
Score = 252844.58198911985
________________________________________________________________
Seed ... 43 
FizzBazz!
S: 16
N: 49
W: 13
H: 27
H/S2: 0.105469
P: 0.065559
los: 0
area: 1
r,c: 3,3
step: 3136
solve1end: 11/ 49
solve2end: 18/ 49
sc1: 4187.155743
sc2: 5067.157907
len: 204/ 3136
sc4: 30078.723603
Score = 30078.72360279237
time: 9020 ms
________________________________________________________________
Seed ... 44 
FizzBazz!
S: 29
N: 183
W: 5
H: 110
H/S2: 0.130797
P: 0.500745
los: 0
area: 1
r,c: 9,24
step: 21228
solve1end: 11/ 183
solve2end: 9/ 183
sc1: 16718.766789
sc2: 9254.364210
len: 518/ 21228
sc4: 31203.661054
time: 9020 ms
Score = 31203.66105358104
________________________________________________________________
Seed ... 45 
FizzBazz!
S: 22
N: 99
W: 27
H: 4
H/S2: 0.008264
P: 0.760580
los: 0
area: 1
r,c: 16,9
step: 8712
solve1end: 43/ 99
solve2end: 41/ 99
sc1: 129161.492133
sc2: 84087.954026
len: 506/ 8712
sc4: 153512.920973
time: 9030 ms
Score = 153512.92097282654
________________________________________________________________
Seed ... 46 
FizzBazz!
S: 36
N: 101
W: 8
H: 44
H/S2: 0.033951
P: 1.207722
los: 0
area: 1
r,c: 4,10
step: 14544
solve1end: 42/ 101
solve2end: 101/ 101
sc1: 88808.948122
sc2: 709539.000000
len: 1186/ 14544
sc4: 81724.605201
time: 9030 ms
Score = 81724.60520095125
________________________________________________________________
Seed ... 47 
FizzBazz!
S: 17
N: 70
W: 7
H: 22
H/S2: 0.076125
P: 0.044290
los: 0
area: 1
r,c: 12,14
step: 4760
solve1end: 14/ 70
solve2end: 15/ 70
sc1: 19263.721233
sc2: 18732.356127
len: 250/ 4760
sc4: 46603.365886
time: 9020 ms
Score = 46603.36588631021
________________________________________________________________
Seed ... 48 
FizzBazz!
S: 33
N: 40
W: 58
H: 24
H/S2: 0.022039
P: 1.454805
los: 0
area: 1
r,c: 8,13
step: 5280
solve1end: 40/ 40
solve2end: 40/ 40
sc1: 14007.000000
sc2: 11684.000000
len: 1101/ 5280
sc4: 107144.000000
time: 9030 ms
Score = 107144.0
________________________________________________________________
Seed ... 49 
FizzBazz!
S: 19
N: 37
W: 25
H: 31
H/S2: 0.085873
P: 0.917583
los: 0
area: 1
r,c: 8,9
step: 2812
solve1end: 37/ 37
solve2end: 37/ 37
sc1: 17704.000000
sc2: 10783.000000
len: 442/ 2812
sc4: 45200.753271
time: 9020 ms
Score = 45200.753271465765
________________________________________________________________
Seed ... 50 
FizzBazz!
S: 21
N: 102
W: 16
H: 49
H/S2: 0.111111
P: 0.769121
los: 0
area: 1
r,c: 18,6
step: 8568
solve1end: 13/ 102
solve2end: 31/ 102
sc1: 9818.509208
sc2: 73366.826939
len: 359/ 8568
sc4: 32608.012987
time: 9020 ms
Score = 32608.012986957692
________________________________________________________________
Seed ... 51 
FizzBazz!
S: 28
N: 181
W: 43
H: 1
H/S2: 0.001276
P: 0.754843
los: 0
area: 1
r,c: 16,27
step: 20272
solve1end: 56/ 181
solve2end: 62/ 181
sc1: 356405.309216
sc2: 474218.743211
len: 782/ 20272
sc4: 480067.647243Score = 480067.6472427368

time: 9020 ms
________________________________________________________________
Seed ... 52 
FizzBazz!
S: 26
N: 35
W: 50
H: 47
H/S2: 0.069527
P: 1.327024
los: 0
area: 1
r,c: 0,2
step: 3640
solve1end: 35/ 35
solve2end: 35/ 35
sc1: 14988.000000
sc2: 10686.000000
len: 746/ 3640
sc4: 64356.000000
time: 9030 ms
Score = 64356.0
________________________________________________________________
Seed ... 53 
FizzBazz!
S: 34
N: 117
W: 98
H: 63
H/S2: 0.054498
P: 0.015683
los: 0
area: 1
r,c: 17,13
step: 15912
solve1end: 117/ 117
solve2end: 117/ 117
sc1: 485997.000000
sc2: 329788.000000
len: 3060/ 15912
sc4: 1774122.518920
time: 9030 ms
Score = 1774122.5189195233
________________________________________________________________
Seed ... 54 
FizzBazz!
S: 22
N: 94
W: 12
H: 5
H/S2: 0.010331
P: 0.732815
los: 0
area: 1
r,c: 18,10
step: 8272
solve1end: 33/ 94
solve2end: 38/ 94
sc1: 82078.360472
sc2: 95854.407960
len: 488/ 8272
sc4: 50509.102999
time: 9020 ms
Score = 50509.102998968745
________________________________________________________________
Seed ... 55 
FizzBazz!
S: 21
N: 62
W: 35
H: 12
H/S2: 0.027211
P: 1.562511
los: 0
area: 1
r,c: 16,14
step: 5208
solve1end: 62/ 62
solve2end: 62/ 62
sc1: 86935.000000
sc2: 62083.000000
len: 590/ 5208
sc4: 91204.363376
time: 9030 ms
Score = 91204.36337603828
________________________________________________________________
Seed ... 56 
FizzBazz!
S: 26
N: 159
W: 38
H: 14
H/S2: 0.020710
P: 1.036249
los: 0
area: 1
r,c: 6,3
step: 16536
solve1end: 46/ 159
solve2end: 58/ 159
sc1: 116703.627878
sc2: 210577.602088
len: 605/ 16536
sc4: 200022.023349
time: 9020 ms
Score = 200022.02334854763
________________________________________________________________
Seed ... 57 
FizzBazz!
S: 30
N: 161
W: 0
H: 0
H/S2: 0.000000
P: 1.146301
los: 0
area: 1
r,c: 25,2
step: 19320
solve1end: 6/ 161
solve2end: 38/ 161
sc1: 640.095745
sc2: 119841.262645
len: 899/ 19320
sc4: 2969.674847
time: 9030 ms
Score = 2969.674846848428
________________________________________________________________
Seed ... 58 
FizzBazz!
S: 12
N: 36
W: 1
H: 2
H/S2: 0.013889
P: 1.551575
los: 0
area: 1
r,c: 8,8
step: 1728
solve1end: 17/ 36
solve2end: 19/ 36
sc1: 4152.702014
sc2: 3916.169909
len: 75/ 1728
sc4: 21.321253
time: 9030 ms
Score = 21.32125298769437
________________________________________________________________
Seed ... 59 
FizzBazz!
S: 15
N: 18
W: 0
H: 39
H/S2: 0.173333
P: 1.127872
los: 0
area: 1
r,c: 0,4
step: 1080
solve1end: 7/ 18
solve2end: 18/ 18
sc1: 535.582956
sc2: 2212.000000
len: 215/ 1080
sc4: 6748.605149
time: Score = 6748.605149486297
9020 ms
________________________________________________________________
Seed ... 60 
FizzBazz!
S: 32
N: 135
W: 23
H: 104
H/S2: 0.101563
P: 0.723398
los: 0
area: 1
r,c: 20,2
step: 17280
solve1end: 35/ 135
solve2end: 57/ 135
sc1: 130737.805627
sc2: 585238.702473
len: 691/ 17280
sc4: 195264.136544
time: 9030 ms
Score = 195264.1365443651
________________________________________________________________
Seed ... 61 
FizzBazz!
S: 30
N: 108
W: 14
H: 45
H/S2: 0.050000
P: 0.754420
los: 0
area: 1
r,c: 1,5
step: 12960
solve1end: 42/ 108
solve2end: 49/ 108
sc1: 146838.475586
sc2: 214721.249895
len: 761/ 12960
sc4: 130723.524090
time: 9030 ms
Score = 130723.5240902898
________________________________________________________________
Seed ... 62 
FizzBazz!
S: 24
N: 126
W: 26
H: 68
H/S2: 0.118056
P: 0.285865
los: 0
area: 1
r,c: 23,12
step: 12096
solve1end: 37/ 126
solve2end: 40/ 126
sc1: 142335.523439
sc2: 147060.372504
len: 422/ 12096
sc4: 160066.233206
time: 9020 ms
Score = 160066.2332059424
________________________________________________________________
Seed ... 63 
FizzBazz!
S: 40
N: 77
W: 78
H: 256
H/S2: 0.160000
P: 0.552269
los: 0
area: 4
r,c: 22,0
step: 12320
solve1end: 40/ 77
solve2end: 77/ 77
sc1: 71546.005352
sc2: 154106.000000
len: 2131/ 12320
sc4: 841564.000000
time: 9030 ms
Score = 841564.0
________________________________________________________________
Seed ... 64 
FizzBazz!
S: 38
N: 166
W: 73
H: 0
H/S2: 0.000000
P: 1.761184
los: 0
area: 1
r,c: 4,33
step: 25232
solve1end: 79/ 166
solve2end: 162/ 166
sc1: 221503.495437
sc2: 2567281.068881
len: 1901/ 25232
sc4: 1063141.869549
time: 9040 ms
Score = 1063141.8695494165
________________________________________________________________
Seed ... 65 
FizzBazz!
S: 36
N: 169
W: 45
H: 16
H/S2: 0.012346
P: 1.750641
los: 0
area: 1
r,c: 2,30
step: 24336
solve1end: 51/ 169
solve2end: 105/ 169
sc1: 72209.852085
sc2: 1033766.270172
len: 1293/ 24336
sc4: 291698.242919
time: 9030 ms
Score = 291698.24291929323
________________________________________________________________
Seed ... 66 
FizzBazz!
S: 28
N: 127
W: 17
H: 62
H/S2: 0.079082
P: 1.676577
los: 0
area: 1
r,c: 21,17
step: 14224
solve1end: 25/ 127
solve2end: 33/ 127
sc1: 9480.720960
sc2: 27220.586707
len: 713/ 14224
sc4: 28385.106017
time: 9030 ms
Score = 28385.10601670819
________________________________________________________________
Seed ... 67 
FizzBazz!
S: 39
N: 149
W: 99
H: 205
H/S2: 0.134780
P: 1.794915
los: 0
area: 1
r,c: 14,27
step: 23244
solve1end: 77/ 149
solve2end: 149/ 149
sc1: 210389.769757
sc2: 1650182.000000
len: 594/ 23244
sc4: 123571.731035
time: 9030 ms
Score = 123571.73103476007
________________________________________________________________
Seed ... 68 
FizzBazz!
S: 19
N: 56
W: 4
H: 3
H/S2: 0.008310
P: 1.047880
los: 0
area: 1
r,c: 10,12
step: 4256
solve1end: 30/ 56
solve2end: 56/ 56
sc1: 43576.304306
sc2: 109167.000000
len: 361/ 4256
sc4: 20878.244337
time: 9020 ms
Score = 20878.24433703964
________________________________________________________________
Seed ... 69 
FizzBazz!
S: 11
N: 26
W: 1
H: 10
H/S2: 0.082645
P: 0.543629
los: 0
area: 1
r,c: 2,2
step: 1144
solve1end: 12/ 26
solve2end: 19/ 26
sc1: 2805.324630
sc2: 4791.242749
len: 13/ 1144
sc4: 84.563327
time: 9020 ms
Score = 84.56332734108743
________________________________________________________________
Seed ... 70 
FizzBazz!
S: 37
N: 103
W: 98
H: 24
H/S2: 0.017531
P: 1.755843
los: 0
area: 1
r,c: 36,31
step: 15244
solve1end: 103/ 103
solve2end: 103/ 103
sc1: 276263.000000
sc2: 366924.000000
len: 3894/ 15244
sc4: 1606860.000000
time: 9030 ms
Score = 1606860.0
________________________________________________________________
Seed ... 71 
FizzBazz!
S: 19
N: 67
W: 24
H: 36
H/S2: 0.099723
P: 0.326782
los: 0
area: 1
r,c: 11,17
step: 5092
solve1end: 34/ 67
solve2end: 18/ 67
sc1: 56629.187776
sc2: 6479.084004
len: 317/ 5092
sc4: 84058.452881Score = 84058.45288081601

time: 9030 ms
________________________________________________________________
Seed ... 72 
FizzBazz!
S: 31
N: 57
W: 60
H: 88
H/S2: 0.091571
P: 1.869688
los: 0
area: 1
r,c: 12,18
step: 7068
solve1end: 57/ 57
solve2end: 57/ 57
sc1: 80285.000000
sc2: 56296.000000
len: 1139/ 7068
sc4: 218509.113388
time: 9030 ms
Score = 218509.11338776606
________________________________________________________________
Seed ... 73 
FizzBazz!
S: 35
N: 102
W: 63
H: 11
H/S2: 0.008980
P: 1.274702
los: 0
area: 1
r,c: 11,27
step: 14280
solve1end: 49/ 102
solve2end: 102/ 102
sc1: 67037.031146
sc2: 363140.000000
len: 623/ 14280
sc4: 143461.397451
time: 9030 ms
Score = 143461.397451268
________________________________________________________________
Seed ... 74 
FizzBazz!
S: 38
N: 140
W: 47
H: 60
H/S2: 0.041551
P: 0.531392
los: 0
area: 1
r,c: 31,24
step: 21280
solve1end: 78/ 140
solve2end: 140/ 140
sc1: 804321.103640
sc2: 2049163.000000
len: 1328/ 21280
sc4: 1231002.048448
time: 9040 ms
Score = 1231002.0484481382
________________________________________________________________
Seed ... 75 
FizzBazz!
S: 28
N: 140
W: 32
H: 23
H/S2: 0.029337
P: 0.106719
los: 0
area: 1
r,c: 10,23
step: 15680
solve1end: 51/ 140
solve2end: 59/ 140
sc1: 589360.675806
sc2: 947475.491274
len: 696/ 15680
sc4: 597008.549758
time: 9030 ms
Score = 597008.5497577951
________________________________________________________________
Seed ... 76 
FizzBazz!
S: 40
N: 150
W: 107
H: 61
H/S2: 0.038125
P: 1.681015
los: 0
area: 1
r,c: 18,1
step: 24000
solve1end: 150/ 150
solve2end: 150/ 150
sc1: 1357464.000000
sc2: 1174106.000000
len: 2653/ 24000
sc4: 2672391.349182
time: 9040 ms
Score = 2672391.3491822253
________________________________________________________________
Seed ... 77 
FizzBazz!
S: 40
N: 387
W: 114
H: 21
H/S2: 0.013125
P: 1.074463
los: 0
area: 1
r,c: 18,15
step: 61920
solve1end: 130/ 387
solve2end: 129/ 387
sc1: 2539617.162601
sc2: 1540277.079068
len: 1610/ 61920
sc4: 3692165.333504
time: 9030 ms
Score = 3692165.333504065
________________________________________________________________
Seed ... 78 
FizzBazz!
S: 14
N: 24
W: 15
H: 27
H/S2: 0.137755
P: 0.679488
los: 0
area: 1
r,c: 8,6
step: 1344
solve1end: 24/ 24
solve2end: 12/ 24
sc1: 3515.000000
sc2: 1368.655908
len: 370/ 1344
sc4: 13836.000000
time: 9021 ms
Score = 13836.0
________________________________________________________________
Seed ... 79 
FizzBazz!
S: 30
N: 196
W: 5
H: 36
H/S2: 0.040000
P: 0.713792
los: 0
area: 1
r,c: 22,10
step: 23520
solve1end: 18/ 196
solve2end: 25/ 196
sc1: 39524.207617
sc2: 71460.833487
len: 679/ 23520
sc4: 28432.666998
time: 9030 ms
Score = 28432.666997899483
________________________________________________________________
Seed ... 80 
FizzBazz!
S: 15
N: 23
W: 0
H: 31
H/S2: 0.137778
P: 0.887169
los: 0
area: 1
r,c: 3,1
step: 1380
solve1end: 15/ 23
solve2end: 23/ 23
sc1: 1965.592474
sc2: 2365.000000
len: 149/ 1380
sc4: 2341.791439
time: 9030 ms
Score = 2341.7914388674517
________________________________________________________________
Seed ... 81 
FizzBazz!
S: 24
N: 129
W: 18
H: 9
H/S2: 0.015625
P: 1.265144
los: 0
area: 1
r,c: 1,14
step: 12384
solve1end: 26/ 129
solve2end: 43/ 129
sc1: 24974.900931
sc2: 93995.941405
len: 465/ 12384
sc4: 35417.617804
time: 9020 ms
Score = 35417.61780437958
________________________________________________________________
Seed ... 82 
FizzBazz!
S: 32
N: 55
W: 81
H: 30
H/S2: 0.029297
P: 1.402500
los: 0
area: 1
r,c: 18,29
step: 7040
solve1end: 55/ 55
solve2end: 55/ 55
sc1: 45442.000000
sc2: 26679.000000
len: 1085/ 7040
sc4: 221015.000000
time: 9020 ms
Score = 221015.0
________________________________________________________________
Seed ... 83 
FizzBazz!
S: 20
N: 47
W: 26
H: 36
H/S2: 0.090000
P: 1.195076
los: 0
area: 1
r,c: 0,7
step: 3760
solve1end: 47/ 47
solve2end: 7/ 47
sc1: 40552.000000
sc2: 138.882945
len: 193/ 3760
sc4: 13173.850723
Score = 13173.850722913001
time: 9030 ms
________________________________________________________________
Seed ... 84 
FizzBazz!
S: 35
N: 93
W: 99
H: 215
H/S2: 0.175510
P: 1.627959
los: 0
area: 3
r,c: 19,20
step: 13020
solve1end: 93/ 93
solve2end: 35/ 93
sc1: 264840.000000
sc2: 9949.900608
len: 477/ 13020
sc4: 80726.369692
time: 9030 ms
Score = 80726.36969231836
________________________________________________________________
Seed ... 85 
FizzBazz!
S: 21
N: 25
W: 29
H: 21
H/S2: 0.047619
P: 0.520072
los: 0
area: 1
r,c: 12,7
step: 2100
solve1end: 25/ 25
solve2end: 25/ 25
sc1: 4639.000000
sc2: 3264.000000
len: 513/ 2100
sc4: 22150.000000
time: 9020 ms
Score = 22150.0
________________________________________________________________
Seed ... 86 
FizzBazz!
S: 13
N: 40
W: 7
H: 22
H/S2: 0.130178
P: 1.946585
los: 0
area: 1
r,c: 5,6
step: 2080
solve1end: 11/ 40
solve2end: 13/ 40
sc1: 613.837095
sc2: 909.732354
len: 141/ 2080
sc4: 1887.503921
time: 9020 ms
Score = 1887.5039210851598
________________________________________________________________
Seed ... 87 
FizzBazz!
S: 25
N: 62
W: 41
H: 85
H/S2: 0.136000
P: 0.373271
los: 0
area: 1
r,c: 3,21
step: 6200
solve1end: 62/ 62
solve2end: 62/ 62
sc1: 133962.000000
sc2: 85059.000000
len: 621/ 6200
sc4: 195910.999983
time: 9030 ms
Score = 195910.99998250036
________________________________________________________________
Seed ... 88 
FizzBazz!
S: 23
N: 97
W: 27
H: 27
H/S2: 0.051040
P: 1.288477
los: 0
area: 1
r,c: 3,15
step: 8924
solve1end: 39/ 97
solve2end: 34/ 97
sc1: 70633.286530
sc2: 29777.593000
len: 433/ 8924
sc4: 38584.961843
time: 9020 ms
Score = 38584.96184296664
________________________________________________________________
Seed ... 89 
FizzBazz!
S: 36
N: 270
W: 20
H: 36
H/S2: 0.027778
P: 0.069943
los: 0
area: 1
r,c: 0,8
step: 38880
solve1end: 2/ 270
solve2end: 33/ 270
sc1: 1768.965439
sc2: 741136.987687
len: 1247/ 38880
sc4: 2007560.845095
time: 9020 ms
Score = 2007560.8450948147
________________________________________________________________
Seed ... 90 
FizzBazz!
S: 12
N: 19
W: 1
H: 2
H/S2: 0.013889
P: 0.686786
los: 0
area: 1
r,c: 11,1
step: 912
solve1end: 19/ 19
solve2end: 19/ 19
sc1: 1427.000000
sc2: 1601.000000
len: 143/ 912
sc4: 2295.400376
time: 9020 ms
Score = 2295.4003760367314
________________________________________________________________
Seed ... 91 
FizzBazz!
S: 20
N: 22
W: 31
H: 21
H/S2: 0.052500
P: 1.151802
los: 0
area: 1
r,c: 15,17
step: 1760
solve1end: 22/ 22
solve2end: 22/ 22
sc1: 287.000000
sc2: 935.000000
len: 262/ 1760
sc4: 13928.000000
time: 9020 ms
Score = 13928.0
________________________________________________________________
Seed ... 92 
FizzBazz!
S: 39
N: 267
W: 108
H: 85
H/S2: 0.055884
P: 0.816705
los: 0
area: 1
r,c: 38,16
step: 41652
solve1end: 89/ 267
solve2end: 144/ 267
sc1: 616335.902561
sc2: 3978097.269298
len: 1515/ 41652
sc4: 4143029.512117
time: 9030 ms
Score = 4143029.51211658
________________________________________________________________
Seed ... 93 
FizzBazz!
S: 33
N: 163
W: 21
H: 161
H/S2: 0.147842
P: 1.689894
los: 0
area: 1
r,c: 24,2
step: 21516
solve1end: 31/ 163
solve2end: 30/ 163
sc1: 20806.927078
sc2: 16770.881685
len: 677/ 21516
sc4: 11013.588125
time: 9030 ms
Score = 11013.588124917176
________________________________________________________________
Seed ... 94 
FizzBazz!
S: 36
N: 193
W: 32
H: 143
H/S2: 0.110340
P: 1.962199
los: 0
area: 2
r,c: 29,6
step: 27792
solve1end: 30/ 193
solve2end: 53/ 193
sc1: 4883.811504
sc2: 105139.820790
len: 967/ 27792
sc4: 38625.737334
time: 9030 ms
Score = 38625.73733420645
________________________________________________________________
Seed ... 95 
FizzBazz!
S: 31
N: 194
W: 50
H: 11
H/S2: 0.011446
P: 0.344617
los: 0
area: 1
r,c: 6,25
step: 24056
solve1end: 72/ 194
solve2end: 76/ 194
sc1: 1122359.910472
sc2: 1130344.894108
len: 1019/ 24056
sc4: 1272944.762091
Score = 1272944.7620907316
time: 9030 ms
________________________________________________________________
Seed ... 96 
FizzBazz!
S: 26
N: 148
W: 3
H: 76
H/S2: 0.112426
P: 1.209524
los: 0
area: 1
r,c: 6,24
step: 15392
solve1end: 20/ 148
solve2end: 20/ 148
sc1: 13146.632918
sc2: 9518.734764
len: 534/ 15392
sc4: 1526.616546
time: 9030 ms
Score = 1526.6165458361877
________________________________________________________________
Seed ... 97 
FizzBazz!
S: 16
N: 16
W: 2
H: 17
H/S2: 0.066406
P: 1.551913
los: 0
area: 1
r,c: 8,8
step: 1024
solve1end: 16/ 16
solve2end: 16/ 16
sc1: 1005.000000
sc2: 831.000000
len: 357/ 1024
sc4: 4335.000000
time: 9020 ms
Score = 4335.0
________________________________________________________________
Seed ... 98 
FizzBazz!
S: 30
N: 126
W: 58
H: 36
H/S2: 0.040000
P: 0.191314
los: 0
area: 1
r,c: 0,25
step: 15120
solve1end: 95/ 126
solve2end: 103/ 126
sc1: 979764.174000
sc2: 1005622.960909
len: 430/ 15120
sc4: 299245.888506
time: 9020 ms
Score = 299245.88850564364
________________________________________________________________
Seed ... 99 
FizzBazz!
S: 11
N: 14
W: 9
H: 10
H/S2: 0.082645
P: 0.815798
los: 0
area: 1
r,c: 4,4
step: 616
solve1end: 14/ 14
solve2end: 14/ 14
sc1: 534.000000
sc2: 929.000000
len: 160/ 616
sc4: 2084.000000
time: 9020 ms
Score = 2084.0
________________________________________________________________
Seed ... 100 
FizzBazz!
S: 34
N: 174
W: 33
H: 129
H/S2: 0.111592
P: 0.663265
los: 0
area: 1
r,c: 14,16
step: 23664
solve1end: 52/ 174
solve2end: 61/ 174
sc1: 375538.522995
sc2: 629118.972271
len: 884/ 23664
sc4: 359417.453455
time: 9030 ms
Score = 359417.45345482655
