Testset seed 1 to 100
________________________________________________________________
Seed ... 1 
FizzBazz!
S: 10
N: 10
W: 5
H: 16
H/S2: 0.160000
P: 1.035800
los: 0
area: 1
r,c: 4,5
time: 190 ms
Score = 412.0
________________________________________________________________
Seed ... 2 
FizzBazz!
S: 20
N: 46
W: 30
H: 21
H/S2: 0.052500
P: 0.841406
los: 0
area: 1
r,c: 7,10
time: 160 ms
Score = 36787.0
________________________________________________________________
Seed ... 3 
FizzBazz!
S: 40
N: 400
W: 118
H: 212
H/S2: 0.132500
P: 1.185729
los: 0
area: 1
r,c: 21,8
time: 210 ms
Score = 74378.92464684337
________________________________________________________________
Seed ... 4 
FizzBazz!
S: 29
N: 193
W: 48
H: 88
H/S2: 0.104637
P: 1.733925
los: 0
area: 1
r,c: 0,27
time: 150 ms
Score = 5284.380940976259
________________________________________________________________
Seed ... 5 
FizzBazz!
S: 12
N: 14
W: 7
H: 13
H/S2: 0.090278
P: 1.275133
los: 0
area: 1
r,c: 4,1
time: 200 ms
Score = 209.0
________________________________________________________________
Seed ... 6 
FizzBazz!
S: 27
N: 144
W: 5
H: 29
H/S2: 0.039781
P: 0.514796
los: 0
area: 1
r,c: 23,6
time: 170 ms
Score = 26608.685133501054
________________________________________________________________
Seed ... 7 
FizzBazz!
S: 13
N: 15
W: 6
H: 21
H/S2: 0.124260
P: 0.107822
los: 0
area: 1
r,c: 1,11
time: 160 ms
Score = 1515.0
________________________________________________________________
Seed ... 8 
FizzBazz!
S: 31
N: 205
W: 3
H: 108
H/S2: 0.112383
P: 1.131926
los: 0
area: 1
r,c: 19,7
time: 220 ms
Score = 21480.597897313914
________________________________________________________________
Seed ... 9 
FizzBazz!
S: 27
N: 156
W: 43
H: 27
H/S2: 0.037037
P: 1.469377
los: 0
area: 1
r,c: 14,5
time: 170 ms
Score = 157717.03710559921
________________________________________________________________
Seed ... 10 
FizzBazz!
S: 35
N: 121
W: 71
H: 180
H/S2: 0.146939
P: 1.108684
los: 0
area: 1
r,c: 1,22
time: 210 ms
Score = 36346.155906336695
________________________________________________________________
Seed ... 11 
FizzBazz!
S: 35
N: 128
W: 24
H: 171
H/S2: 0.139592
P: 0.143769
los: 0
area: 1
r,c: 29,1
time: 210 ms
Score = 124568.50823320409
________________________________________________________________
Seed ... 12 
FizzBazz!
S: 38
N: 175
W: 87
H: 213
H/S2: 0.147507
P: 0.432272
los: 0
area: 1
r,c: 15,32
time: 220 ms
Score = 1301964.655134502
________________________________________________________________
Seed ... 13 
FizzBazz!
S: 16
N: 56
W: 4
H: 1
H/S2: 0.003906
P: 0.523187
los: 0
area: 1
r,c: 11,11
time: 190 ms
Score = 3954.6357689114298
________________________________________________________________
Seed ... 14 
FizzBazz!
S: 12
N: 16
W: 10
H: 14
H/S2: 0.097222
P: 1.789356
los: 0
area: 1
r,c: 1,0
time: 140 ms
Score = 774.0
________________________________________________________________
Seed ... 15 
FizzBazz!
S: 20
N: 65
W: 11
H: 13
H/S2: 0.032500
P: 1.506585
los: 0
area: 1
r,c: 12,19
time: 150 ms
Score = 19473.22840471862
________________________________________________________________
Seed ... 16 
FizzBazz!
S: 23
N: 68
W: 31
H: 38
H/S2: 0.071834
P: 1.288506
los: 0
area: 1
r,c: 2,3
time: 210 ms
Score = 138543.0
________________________________________________________________
Seed ... 17 
FizzBazz!
S: 36
N: 82
W: 23
H: 76
H/S2: 0.058642
P: 1.312383
los: 0
area: 1
r,c: 3,21
time: 190 ms
Score = 336327.0
________________________________________________________________
Seed ... 18 
FizzBazz!
S: 35
N: 185
W: 38
H: 135
H/S2: 0.110204
P: 0.510166
los: 0
area: 1
r,c: 27,15
time: 180 ms
Score = 76663.36000757397
________________________________________________________________
Seed ... 19 
FizzBazz!
S: 23
N: 30
W: 9
H: 77
H/S2: 0.145558
P: 0.549236
los: 0
area: 1
r,c: 11,6
time: 210 ms
Score = 11207.0
________________________________________________________________
Seed ... 20 
FizzBazz!
S: 10
N: 15
W: 7
H: 9
H/S2: 0.090000
P: 0.595073
los: 0
area: 1
r,c: 6,5
time: 160 ms
Score = 798.5944608237147
________________________________________________________________
Seed ... 21 
FizzBazz!
S: 35
N: 220
W: 34
H: 163
H/S2: 0.133061
P: 0.096089
los: 0
area: 1
r,c: 16,21
time: 170 ms
Score = 325246.4103497709
________________________________________________________________
Seed ... 22 
FizzBazz!
S: 26
N: 62
W: 13
H: 3
H/S2: 0.004438
P: 0.977801
los: 0
area: 1
r,c: 7,21
time: 220 ms
Score = 152258.0
________________________________________________________________
Seed ... 23 
FizzBazz!
S: 22
N: 33
W: 8
H: 40
H/S2: 0.082645
P: 0.836355
los: 0
area: 1
r,c: 6,11
time: 160 ms
Score = 14418.0
________________________________________________________________
Seed ... 24 
FizzBazz!
S: 11
N: 30
W: 1
H: 8
H/S2: 0.066116
P: 0.034247
los: 0
area: 1
r,c: 3,5
time: 150 ms
Score = 1169.9609168565687
________________________________________________________________
Seed ... 25 
FizzBazz!
S: 31
N: 90
W: 42
H: 173
H/S2: 0.180021
P: 0.642358
los: 0
area: 2
r,c: 10,15
time: 180 ms
Score = 24617.619826611226
________________________________________________________________
Seed ... 26 
FizzBazz!
S: 15
N: 29
W: 7
H: 7
H/S2: 0.031111
P: 0.522249
los: 0
area: 1
r,c: 8,4
time: 190 ms
Score = 3720.573239300103
________________________________________________________________
Seed ... 27 
FizzBazz!
S: 20
N: 71
W: 28
H: 2
H/S2: 0.005000
P: 0.434409
los: 0
area: 1
r,c: 13,18
time: 160 ms
Score = 48550.62427889434
________________________________________________________________
Seed ... 28 
FizzBazz!
S: 28
N: 81
W: 36
H: 40
H/S2: 0.051020
P: 0.683069
los: 0
area: 1
r,c: 5,7
time: 160 ms
Score = 115687.46815794286
________________________________________________________________
Seed ... 29 
FizzBazz!
S: 39
N: 51
W: 131
H: 32
H/S2: 0.021039
P: 0.429371
los: 0
area: 1
r,c: 8,36
time: 200 ms
Score = 217.55586507436368
________________________________________________________________
Seed ... 30 
FizzBazz!
S: 38
N: 247
W: 88
H: 223
H/S2: 0.154432
P: 0.412680
los: 0
area: 1
r,c: 21,31
time: 210 ms
Score = 25997.203196180555
________________________________________________________________
Seed ... 31 
FizzBazz!
S: 10
N: 10
W: 0
H: 17
H/S2: 0.170000
P: 1.024958
los: 0
area: 1
r,c: 4,4
time: 140 ms
Score = 281.68131644323887
________________________________________________________________
Seed ... 32 
FizzBazz!
S: 22
N: 71
W: 5
H: 46
H/S2: 0.095041
P: 0.083599
los: 0
area: 1
r,c: 3,4
time: 170 ms
Score = 66166.95199895249
________________________________________________________________
Seed ... 33 
FizzBazz!
S: 20
N: 20
W: 26
H: 3
H/S2: 0.007500
P: 1.928021
los: 0
area: 1
r,c: 10,14
time: 170 ms
Score = 1243.0
________________________________________________________________
Seed ... 34 
FizzBazz!
S: 10
N: 10
W: 2
H: 2
H/S2: 0.020000
P: 0.612482
los: 0
area: 1
r,c: 7,8
time: 150 ms
Score = 142.0
________________________________________________________________
Seed ... 35 
FizzBazz!
S: 19
N: 40
W: 31
H: 30
H/S2: 0.083102
P: 1.846884
los: 0
area: 1
r,c: 11,7
time: 150 ms
Score = 11642.0
________________________________________________________________
Seed ... 36 
FizzBazz!
S: 39
N: 160
W: 37
H: 90
H/S2: 0.059172
P: 1.004391
los: 0
area: 1
r,c: 34,10
time: 180 ms
Score = 556744.9587898212
________________________________________________________________
Seed ... 37 
FizzBazz!
S: 14
N: 31
W: 11
H: 19
H/S2: 0.096939
P: 0.994626
los: 0
area: 1
r,c: 7,9
time: 190 ms
Score = 8590.633619631095
________________________________________________________________
Seed ... 38 
FizzBazz!
S: 27
N: 29
W: 17
H: 127
H/S2: 0.174211
P: 1.132490
los: 0
area: 1
r,c: 17,11
time: 210 ms
Score = 7733.0
________________________________________________________________
Seed ... 39 
FizzBazz!
S: 13
N: 25
W: 0
H: 4
H/S2: 0.023669
P: 0.955467
los: 0
area: 1
r,c: 9,7
time: 150 ms
Score = 5871.0
________________________________________________________________
Seed ... 40 
FizzBazz!
S: 38
N: 232
W: 114
H: 224
H/S2: 0.155125
P: 1.917441
los: 0
area: 1
r,c: 16,13
time: 210 ms
Score = 60835.63910664011
________________________________________________________________
Seed ... 41 
FizzBazz!
S: 21
N: 103
W: 2
H: 53
H/S2: 0.120181
P: 0.701554
los: 0
area: 1
r,c: 10,9
time: 200 ms
Score = 10496.681369326125
________________________________________________________________
Seed ... 42 
FizzBazz!
S: 26
N: 81
W: 56
H: 101
H/S2: 0.149408
P: 1.174789
los: 0
area: 2
r,c: 6,17
time: 150 ms
Score = 466.2730428709503
________________________________________________________________
Seed ... 43 
FizzBazz!
S: 16
N: 49
W: 13
H: 27
H/S2: 0.105469
P: 0.065559
los: 0
area: 1
r,c: 3,3
time: 200 ms
Score = 4187.155743313338
________________________________________________________________
Seed ... 44 
FizzBazz!
S: 29
N: 183
W: 5
H: 110
H/S2: 0.130797
P: 0.500745
los: 0
area: 1
r,c: 9,24
time: 180 ms
Score = 16718.766788831126
________________________________________________________________
Seed ... 45 
FizzBazz!
S: 22
N: 99
W: 27
H: 4
H/S2: 0.008264
P: 0.760580
los: 0
area: 1
r,c: 16,9
time: 170 ms
Score = 129161.49213344425
________________________________________________________________
Seed ... 46 
FizzBazz!
S: 36
N: 101
W: 8
H: 44
H/S2: 0.033951
P: 1.207722
los: 0
area: 1
r,c: 4,10
time: 230 ms
Score = 88808.94812194769
________________________________________________________________
Seed ... 47 
FizzBazz!
S: 17
N: 70
W: 7
H: 22
H/S2: 0.076125
P: 0.044290
los: 0
area: 1
r,c: 12,14
time: 140 ms
Score = 19263.721232698757
________________________________________________________________
Seed ... 48 
FizzBazz!
S: 33
N: 40
W: 58
H: 24
H/S2: 0.022039
P: 1.454805
los: 0
area: 1
r,c: 8,13
time: 170 ms
Score = 14007.0
________________________________________________________________
Seed ... 49 
FizzBazz!
S: 19
N: 37
W: 25
H: 31
H/S2: 0.085873
P: 0.917583
los: 0
area: 1
r,c: 8,9
time: 190 ms
Score = 17704.0
________________________________________________________________
Seed ... 50 
FizzBazz!
S: 21
N: 102
W: 16
H: 49
H/S2: 0.111111
P: 0.769121
los: 0
area: 1
r,c: 18,6
time: 200 ms
Score = 9818.509208009627
________________________________________________________________
Seed ... 51 
FizzBazz!
S: 28
N: 181
W: 43
H: 1
H/S2: 0.001276
P: 0.754843
los: 0
area: 1
r,c: 16,27
time: 210 ms
Score = 356405.30921574356
________________________________________________________________
Seed ... 52 
FizzBazz!
S: 26
N: 35
W: 50
H: 47
H/S2: 0.069527
P: 1.327024
los: 0
area: 1
r,c: 0,2
time: 230 ms
Score = 14988.0
________________________________________________________________
Seed ... 53 
FizzBazz!
S: 34
N: 117
W: 98
H: 63
H/S2: 0.054498
P: 0.015683
los: 0
area: 1
r,c: 17,13
time: 220 ms
Score = 485997.0
________________________________________________________________
Seed ... 54 
FizzBazz!
S: 22
N: 94
W: 12
H: 5
H/S2: 0.010331
P: 0.732815
los: 0
area: 1
r,c: 18,10
time: 200 ms
Score = 82078.36047190818
________________________________________________________________
Seed ... 55 
FizzBazz!
S: 21
N: 62
W: 35
H: 12
H/S2: 0.027211
P: 1.562511
los: 0
area: 1
r,c: 16,14
time: 220 ms
Score = 86935.0
________________________________________________________________
Seed ... 56 
FizzBazz!
S: 26
N: 159
W: 38
H: 14
H/S2: 0.020710
P: 1.036249
los: 0
area: 1
r,c: 6,3
time: 210 ms
Score = 116703.62787782829
________________________________________________________________
Seed ... 57 
FizzBazz!
S: 30
N: 161
W: 0
H: 0
H/S2: 0.000000
P: 1.146301
los: 0
area: 1
r,c: 25,2
time: 210 ms
Score = 640.0957451656662
________________________________________________________________
Seed ... 58 
FizzBazz!
S: 12
N: 36
W: 1
H: 2
H/S2: 0.013889
P: 1.551575
los: 0
area: 1
r,c: 8,8
time: 190 ms
Score = 4152.702014351144
________________________________________________________________
Seed ... 59 
FizzBazz!
S: 15
N: 18
W: 0
H: 39
H/S2: 0.173333
P: 1.127872
los: 0
area: 1
r,c: 0,4
time: 190 ms
Score = 535.582956226653
________________________________________________________________
Seed ... 60 
FizzBazz!
S: 32
N: 135
W: 23
H: 104
H/S2: 0.101563
P: 0.723398
los: 0
area: 1
r,c: 20,2
time: 170 ms
Score = 130737.80562732997
________________________________________________________________
Seed ... 61 
FizzBazz!
S: 30
N: 108
W: 14
H: 45
H/S2: 0.050000
P: 0.754420
los: 0
area: 1
r,c: 1,5
time: 210 ms
Score = 146838.47558586992
________________________________________________________________
Seed ... 62 
FizzBazz!
S: 24
N: 126
W: 26
H: 68
H/S2: 0.118056
P: 0.285865
los: 0
area: 1
r,c: 23,12
time: 150 ms
Score = 142335.5234385104
________________________________________________________________
Seed ... 63 
FizzBazz!
S: 40
N: 77
W: 78
H: 256
H/S2: 0.160000
P: 0.552269
los: 0
area: 4
r,c: 22,0
time: 170 ms
Score = 71546.00535171632
________________________________________________________________
Seed ... 64 
FizzBazz!
S: 38
N: 166
W: 73
H: 0
H/S2: 0.000000
P: 1.761184
los: 0
area: 1
r,c: 4,33
time: 240 ms
Score = 221503.495437012
________________________________________________________________
Seed ... 65 
FizzBazz!
S: 36
N: 169
W: 45
H: 16
H/S2: 0.012346
P: 1.750641
los: 0
area: 1
r,c: 2,30
time: 170 ms
Score = 72209.85208458104
________________________________________________________________
Seed ... 66 
FizzBazz!
S: 28
N: 127
W: 17
H: 62
H/S2: 0.079082
P: 1.676577
los: 0
area: 1
r,c: 21,17
time: 170 ms
Score = 9480.720960178578
________________________________________________________________
Seed ... 67 
FizzBazz!
S: 39
N: 149
W: 99
H: 205
H/S2: 0.134780
P: 1.794915
los: 0
area: 1
r,c: 14,27
time: 180 ms
Score = 210389.76975685873
________________________________________________________________
Seed ... 68 
FizzBazz!
S: 19
N: 56
W: 4
H: 3
H/S2: 0.008310
P: 1.047880
los: 0
area: 1
r,c: 10,12
time: 150 ms
Score = 43576.304306465914
________________________________________________________________
Seed ... 69 
FizzBazz!
S: 11
N: 26
W: 1
H: 10
H/S2: 0.082645
P: 0.543629
los: 0
area: 1
r,c: 2,2
time: 140 ms
Score = 2805.3246295817785
________________________________________________________________
Seed ... 70 
FizzBazz!
S: 37
N: 103
W: 98
H: 24
H/S2: 0.017531
P: 1.755843
los: 0
area: 1
r,c: 36,31
time: 190 ms
Score = 276263.0
________________________________________________________________
Seed ... 71 
FizzBazz!
S: 19
N: 67
W: 24
H: 36
H/S2: 0.099723
P: 0.326782
los: 0
area: 1
r,c: 11,17
time: 160 ms
Score = 56629.18777599693
________________________________________________________________
Seed ... 72 
FizzBazz!
S: 31
N: 57
W: 60
H: 88
H/S2: 0.091571
P: 1.869688
los: 0
area: 1
r,c: 12,18
time: 180 ms
Score = 80285.0
________________________________________________________________
Seed ... 73 
FizzBazz!
S: 35
N: 102
W: 63
H: 11
H/S2: 0.008980
P: 1.274702
los: 0
area: 1
r,c: 11,27
time: 160 ms
Score = 67037.03114554318
________________________________________________________________
Seed ... 74 
FizzBazz!
S: 38
N: 140
W: 47
H: 60
H/S2: 0.041551
P: 0.531392
los: 0
area: 1
r,c: 31,24
time: 230 ms
Score = 804321.1036400851
________________________________________________________________
Seed ... 75 
FizzBazz!
S: 28
N: 140
W: 32
H: 23
H/S2: 0.029337
P: 0.106719
los: 0
area: 1
r,c: 10,23
time: 220 ms
Score = 589360.6758056747
________________________________________________________________
Seed ... 76 
FizzBazz!
S: 40
N: 150
W: 107
H: 61
H/S2: 0.038125
P: 1.681015
los: 0
area: 1
r,c: 18,1
time: 250 ms
Score = 1357464.0
________________________________________________________________
Seed ... 77 
FizzBazz!
S: 40
N: 387
W: 114
H: 21
H/S2: 0.013125
P: 1.074463
los: 0
area: 1
r,c: 18,15
time: 210 ms
Score = 2539617.162601164
________________________________________________________________
Seed ... 78 
FizzBazz!
S: 14
N: 24
W: 15
H: 27
H/S2: 0.137755
P: 0.679488
los: 0
area: 1
r,c: 8,6
time: 150 ms
Score = 3515.0
________________________________________________________________
Seed ... 79 
FizzBazz!
S: 30
N: 196
W: 5
H: 36
H/S2: 0.040000
P: 0.713792
los: 0
area: 1
r,c: 22,10
time: 160 ms
Score = 39524.20761730095
________________________________________________________________
Seed ... 80 
FizzBazz!
S: 15
N: 23
W: 0
H: 31
H/S2: 0.137778
P: 0.887169
los: 0
area: 1
r,c: 3,1
time: 200 ms
Score = 1965.5924736936613
________________________________________________________________
Seed ... 81 
FizzBazz!
S: 24
N: 129
W: 18
H: 9
H/S2: 0.015625
P: 1.265144
los: 0
area: 1
r,c: 1,14
time: 210 ms
Score = 24974.90093072555
________________________________________________________________
Seed ... 82 
FizzBazz!
S: 32
N: 55
W: 81
H: 30
H/S2: 0.029297
P: 1.402500
los: 0
area: 1
r,c: 18,29
time: 220 ms
Score = 45442.0
________________________________________________________________
Seed ... 83 
FizzBazz!
S: 20
N: 47
W: 26
H: 36
H/S2: 0.090000
P: 1.195076
los: 0
area: 1
r,c: 0,7
time: 210 ms
Score = 40552.0
________________________________________________________________
Seed ... 84 
FizzBazz!
S: 35
N: 93
W: 99
H: 215
H/S2: 0.175510
P: 1.627959
los: 0
area: 3
r,c: 19,20
time: 230 ms
Score = 264840.0
________________________________________________________________
Seed ... 85 
FizzBazz!
S: 21
N: 25
W: 29
H: 21
H/S2: 0.047619
P: 0.520072
los: 0
area: 1
r,c: 12,7
time: 200 ms
Score = 4639.0
________________________________________________________________
Seed ... 86 
FizzBazz!
S: 13
N: 40
W: 7
H: 22
H/S2: 0.130178
P: 1.946585
los: 0
area: 1
r,c: 5,6
time: 150 ms
Score = 613.837094888543
________________________________________________________________
Seed ... 87 
FizzBazz!
S: 25
N: 62
W: 41
H: 85
H/S2: 0.136000
P: 0.373271
los: 0
area: 1
r,c: 3,21
time: 210 ms
Score = 133962.0
________________________________________________________________
Seed ... 88 
FizzBazz!
S: 23
N: 97
W: 27
H: 27
H/S2: 0.051040
P: 1.288477
los: 0
area: 1
r,c: 3,15
time: 200 ms
Score = 70633.28653041173
________________________________________________________________
Seed ... 89 
FizzBazz!
S: 36
N: 270
W: 20
H: 36
H/S2: 0.027778
P: 0.069943
los: 0
area: 1
r,c: 0,8
time: 160 ms
Score = 1768.9654387022135
________________________________________________________________
Seed ... 90 
FizzBazz!
S: 12
N: 19
W: 1
H: 2
H/S2: 0.013889
P: 0.686786
los: 0
area: 1
r,c: 11,1
time: 160 ms
Score = 1427.0
________________________________________________________________
Seed ... 91 
FizzBazz!
S: 20
N: 22
W: 31
H: 21
H/S2: 0.052500
P: 1.151802
los: 0
area: 1
r,c: 15,17
time: 160 ms
Score = 287.0
________________________________________________________________
Seed ... 92 
FizzBazz!
S: 39
N: 267
W: 108
H: 85
H/S2: 0.055884
P: 0.816705
los: 0
area: 1
r,c: 38,16
time: 230 ms
Score = 616335.9025610186
________________________________________________________________
Seed ... 93 
FizzBazz!
S: 33
N: 163
W: 21
H: 161
H/S2: 0.147842
P: 1.689894
los: 0
area: 1
r,c: 24,2
time: 210 ms
Score = 20806.927078154997
________________________________________________________________
Seed ... 94 
FizzBazz!
S: 36
N: 193
W: 32
H: 143
H/S2: 0.110340
P: 1.962199
los: 0
area: 2
r,c: 29,6
time: 210 ms
Score = 4883.811503755383
________________________________________________________________
Seed ... 95 
FizzBazz!
S: 31
N: 194
W: 50
H: 11
H/S2: 0.011446
P: 0.344617
los: 0
area: 1
r,c: 6,25
time: 220 ms
Score = 1122359.9104721693
________________________________________________________________
Seed ... 96 
FizzBazz!
S: 26
N: 148
W: 3
H: 76
H/S2: 0.112426
P: 1.209524
los: 0
area: 1
r,c: 6,24
time: 220 ms
Score = 13146.632918189338
________________________________________________________________
Seed ... 97 
FizzBazz!
S: 16
N: 16
W: 2
H: 17
H/S2: 0.066406
P: 1.551913
los: 0
area: 1
r,c: 8,8
time: 140 ms
Score = 1005.0
________________________________________________________________
Seed ... 98 
FizzBazz!
S: 30
N: 126
W: 58
H: 36
H/S2: 0.040000
P: 0.191314
los: 0
area: 1
r,c: 0,25
time: 180 ms
Score = 979764.1739999793
________________________________________________________________
Seed ... 99 
FizzBazz!
S: 11
N: 14
W: 9
H: 10
H/S2: 0.082645
P: 0.815798
los: 0
area: 1
r,c: 4,4
time: 130 ms
Score = 534.0
________________________________________________________________
Seed ... 100 
FizzBazz!
S: 34
N: 174
W: 33
H: 129
H/S2: 0.111592
P: 0.663265
los: 0
area: 1
r,c: 14,16
Score = 375538.5229947492
time: 220 ms
